%YAML 1.1
%TAG !u! tag:unity3d.com,2011:
--- !u!1045 &1
EditorBuildSettings:
  m_ObjectHideFlags: 0
  serializedVersion: 2
  m_Scenes:
  - enabled: 1
    path: Assets/_Scenes/_GameManeger.unity
    guid: d118301a5b8984ea7b5fc6653b341672
  - enabled: 1
    path: Assets/_Scenes/HomePage.unity
    guid: 71c859a8fd5e647beb8aa71acfb5dad9
  - enabled: 1
    path: Assets/_Scenes/GameCore.unity
    guid: 5b29bf47d2e374455bdde64956d6c45f
  - enabled: 1
    path: Assets/_Scenes/Settings.unity
    guid: de056d0297a0d4fb2ace2831977942df
  m_configObjects: {}
