%YAML 1.1
%TAG !u! tag:unity3d.com,2011:
--- !u!1001 &1726257450552840780
PrefabInstance:
  m_ObjectHideFlags: 0
  serializedVersion: 2
  m_Modification:
    m_TransformParent: {fileID: 0}
    m_Modifications:
    - target: {fileID: 6738536450528578224, guid: 9eb29fc694fe546b986815756f55ea24, type: 3}
      propertyPath: m_RootOrder
      value: 0
      objectReference: {fileID: 0}
    - target: {fileID: 6738536450528578224, guid: 9eb29fc694fe546b986815756f55ea24, type: 3}
      propertyPath: m_LocalPosition.x
      value: 0
      objectReference: {fileID: 0}
    - target: {fileID: 6738536450528578224, guid: 9eb29fc694fe546b986815756f55ea24, type: 3}
      propertyPath: m_LocalPosition.y
      value: 0
      objectReference: {fileID: 0}
    - target: {fileID: 6738536450528578224, guid: 9eb29fc694fe546b986815756f55ea24, type: 3}
      propertyPath: m_LocalEulerAnglesHint.x
      value: 0
      objectReference: {fileID: 0}
    - target: {fileID: 6738536450528578224, guid: 9eb29fc694fe546b986815756f55ea24, type: 3}
      propertyPath: m_LocalEulerAnglesHint.y
      value: 0
      objectReference: {fileID: 0}
    - target: {fileID: 6738536450528578224, guid: 9eb29fc694fe546b986815756f55ea24, type: 3}
      propertyPath: m_LocalEulerAnglesHint.z
      value: 0
      objectReference: {fileID: 0}
    - target: {fileID: 6738536450528578225, guid: 9eb29fc694fe546b986815756f55ea24, type: 3}
      propertyPath: m_Name
      value: ButtonText
      objectReference: {fileID: 0}
    m_RemovedComponents: []
  m_SourcePrefab: {fileID: 100100000, guid: 9eb29fc694fe546b986815756f55ea24, type: 3}
--- !u!224 &5364052354806438140 stripped
RectTransform:
  m_CorrespondingSourceObject: {fileID: 6738536450528578224, guid: 9eb29fc694fe546b986815756f55ea24, type: 3}
  m_PrefabInstance: {fileID: 1726257450552840780}
  m_PrefabAsset: {fileID: 0}
--- !u!1001 &5364052353821497554
PrefabInstance:
  m_ObjectHideFlags: 0
  serializedVersion: 2
  m_Modification:
    m_TransformParent: {fileID: 5364052354806438140}
    m_Modifications:
    - target: {fileID: 7382848511868954826, guid: bc8f4cf33101a48558a21bdb899d87e2, type: 3}
      propertyPath: m_text
      value: NoTranslations
      objectReference: {fileID: 0}
    - target: {fileID: 7382848511868954828, guid: bc8f4cf33101a48558a21bdb899d87e2, type: 3}
      propertyPath: m_Name
      value: Text
      objectReference: {fileID: 0}
    - target: {fileID: 7382848511868954829, guid: bc8f4cf33101a48558a21bdb899d87e2, type: 3}
      propertyPath: m_Pivot.x
      value: 0.5
      objectReference: {fileID: 0}
    - target: {fileID: 7382848511868954829, guid: bc8f4cf33101a48558a21bdb899d87e2, type: 3}
      propertyPath: m_Pivot.y
      value: 0.5
      objectReference: {fileID: 0}
    - target: {fileID: 7382848511868954829, guid: bc8f4cf33101a48558a21bdb899d87e2, type: 3}
      propertyPath: m_RootOrder
      value: 0
      objectReference: {fileID: 0}
    - target: {fileID: 7382848511868954829, guid: bc8f4cf33101a48558a21bdb899d87e2, type: 3}
      propertyPath: m_AnchorMax.x
      value: 1
      objectReference: {fileID: 0}
    - target: {fileID: 7382848511868954829, guid: bc8f4cf33101a48558a21bdb899d87e2, type: 3}
      propertyPath: m_AnchorMax.y
      value: 1
      objectReference: {fileID: 0}
    - target: {fileID: 7382848511868954829, guid: bc8f4cf33101a48558a21bdb899d87e2, type: 3}
      propertyPath: m_AnchorMin.x
      value: 0
      objectReference: {fileID: 0}
    - target: {fileID: 7382848511868954829, guid: bc8f4cf33101a48558a21bdb899d87e2, type: 3}
      propertyPath: m_AnchorMin.y
      value: 0
      objectReference: {fileID: 0}
    - target: {fileID: 7382848511868954829, guid: bc8f4cf33101a48558a21bdb899d87e2, type: 3}
      propertyPath: m_SizeDelta.x
      value: 0
      objectReference: {fileID: 0}
    - target: {fileID: 7382848511868954829, guid: bc8f4cf33101a48558a21bdb899d87e2, type: 3}
      propertyPath: m_SizeDelta.y
      value: 0
      objectReference: {fileID: 0}
    - target: {fileID: 7382848511868954829, guid: bc8f4cf33101a48558a21bdb899d87e2, type: 3}
      propertyPath: m_LocalPosition.x
      value: 0
      objectReference: {fileID: 0}
    - target: {fileID: 7382848511868954829, guid: bc8f4cf33101a48558a21bdb899d87e2, type: 3}
      propertyPath: m_LocalPosition.y
      value: 0
      objectReference: {fileID: 0}
    - target: {fileID: 7382848511868954829, guid: bc8f4cf33101a48558a21bdb899d87e2, type: 3}
      propertyPath: m_LocalPosition.z
      value: 0
      objectReference: {fileID: 0}
    - target: {fileID: 7382848511868954829, guid: bc8f4cf33101a48558a21bdb899d87e2, type: 3}
      propertyPath: m_LocalRotation.w
      value: 1
      objectReference: {fileID: 0}
    - target: {fileID: 7382848511868954829, guid: bc8f4cf33101a48558a21bdb899d87e2, type: 3}
      propertyPath: m_LocalRotation.x
      value: 0
      objectReference: {fileID: 0}
    - target: {fileID: 7382848511868954829, guid: bc8f4cf33101a48558a21bdb899d87e2, type: 3}
      propertyPath: m_LocalRotation.y
      value: 0
      objectReference: {fileID: 0}
    - target: {fileID: 7382848511868954829, guid: bc8f4cf33101a48558a21bdb899d87e2, type: 3}
      propertyPath: m_LocalRotation.z
      value: 0
      objectReference: {fileID: 0}
    - target: {fileID: 7382848511868954829, guid: bc8f4cf33101a48558a21bdb899d87e2, type: 3}
      propertyPath: m_AnchoredPosition.x
      value: 0
      objectReference: {fileID: 0}
    - target: {fileID: 7382848511868954829, guid: bc8f4cf33101a48558a21bdb899d87e2, type: 3}
      propertyPath: m_AnchoredPosition.y
      value: 0
      objectReference: {fileID: 0}
    - target: {fileID: 7382848511868954829, guid: bc8f4cf33101a48558a21bdb899d87e2, type: 3}
      propertyPath: m_LocalEulerAnglesHint.x
      value: 0
      objectReference: {fileID: 0}
    - target: {fileID: 7382848511868954829, guid: bc8f4cf33101a48558a21bdb899d87e2, type: 3}
      propertyPath: m_LocalEulerAnglesHint.y
      value: 0
      objectReference: {fileID: 0}
    - target: {fileID: 7382848511868954829, guid: bc8f4cf33101a48558a21bdb899d87e2, type: 3}
      propertyPath: m_LocalEulerAnglesHint.z
      value: 0
      objectReference: {fileID: 0}
    m_RemovedComponents: []
  m_SourcePrefab: {fileID: 100100000, guid: bc8f4cf33101a48558a21bdb899d87e2, type: 3}
